concatenate(
    concatenate(
        if(mid(%1%,1,1)="3",mid(%1%,2,1),
            if(mid(%1%,1,1)="2",
                if(mid(%1%,2,1)="C",",",
                if(mid(%1%,2,1)="E",".","")),
            if(mid(%1%,1,1)="4",
                if(mid(%1%,2,1)="1","A",
                if(mid(%1%,2,1)="2","B",
                if(mid(%1%,2,1)="3","C",
                if(mid(%1%,2,1)="4","D",
                if(mid(%1%,2,1)="5","E",
                if(mid(%1%,2,1)="6","F",
                if(mid(%1%,2,1)="7","G",
                if(mid(%1%,2,1)="8","H",
                if(mid(%1%,2,1)="9","I",
                if(mid(%1%,2,1)="A","J",
                if(mid(%1%,2,1)="B","K",
                if(mid(%1%,2,1)="C","L",
                if(mid(%1%,2,1)="D","M",
                if(mid(%1%,2,1)="E","N",
                if(mid(%1%,2,1)="F","O",""))))))))))))))),
            if(mid(%1%,1,1)="5",
                if(mid(%1%,2,1)="0","P",
                if(mid(%1%,2,1)="1","Q",
                if(mid(%1%,2,1)="2","R",
                if(mid(%1%,2,1)="3","S",
                if(mid(%1%,2,1)="4","T",
                if(mid(%1%,2,1)="5","U",
                if(mid(%1%,2,1)="6","V",
                if(mid(%1%,2,1)="7","W",
                if(mid(%1%,2,1)="8","X",
                if(mid(%1%,2,1)="9","Y",
                if(mid(%1%,2,1)="A","Z",""))))))))))),
            if(mid(%1%,1,1)="6",
                if(mid(%1%,2,1)="1","a",
                if(mid(%1%,2,1)="2","b",
                if(mid(%1%,2,1)="3","c",
                if(mid(%1%,2,1)="4","d",
                if(mid(%1%,2,1)="5","e",
                if(mid(%1%,2,1)="6","f",
                if(mid(%1%,2,1)="7","g",
                if(mid(%1%,2,1)="8","h",
                if(mid(%1%,2,1)="9","i",
                if(mid(%1%,2,1)="A","j",
                if(mid(%1%,2,1)="B","k",
                if(mid(%1%,2,1)="C","l",
                if(mid(%1%,2,1)="D","m",
                if(mid(%1%,2,1)="E","n",
                if(mid(%1%,2,1)="F","o",""))))))))))))))),
            if(mid(%1%,1,1)="7",
                if(mid(%1%,2,1)="0","p",
                if(mid(%1%,2,1)="1","q",
                if(mid(%1%,2,1)="2","r",
                if(mid(%1%,2,1)="3","s",
                if(mid(%1%,2,1)="4","t",
                if(mid(%1%,2,1)="5","u",
                if(mid(%1%,2,1)="6","v",
                if(mid(%1%,2,1)="7","w",
                if(mid(%1%,2,1)="8","x",
                if(mid(%1%,2,1)="9","y",
                if(mid(%1%,2,1)="A","z",""))))))))))),"")))))),
        if(mid(%1%,3,1)="3",mid(%1%,4,1),
            if(mid(%1%,3,1)="2",
                if(mid(%1%,4,1)="C",",",
                if(mid(%1%,4,1)="E",".","")),
            if(mid(%1%,3,1)="4",
                if(mid(%1%,4,1)="1","A",
                if(mid(%1%,4,1)="2","B",
                if(mid(%1%,4,1)="3","C",
                if(mid(%1%,4,1)="4","D",
                if(mid(%1%,4,1)="5","E",
                if(mid(%1%,4,1)="6","F",
                if(mid(%1%,4,1)="7","G",
                if(mid(%1%,4,1)="8","H",
                if(mid(%1%,4,1)="9","I",
                if(mid(%1%,4,1)="A","J",
                if(mid(%1%,4,1)="B","K",
                if(mid(%1%,4,1)="C","L",
                if(mid(%1%,4,1)="D","M",
                if(mid(%1%,4,1)="E","N",
                if(mid(%1%,4,1)="F","O",""))))))))))))))),
            if(mid(%1%,3,1)="5",
                if(mid(%1%,4,1)="0","P",
                if(mid(%1%,4,1)="1","Q",
                if(mid(%1%,4,1)="2","R",
                if(mid(%1%,4,1)="3","S",
                if(mid(%1%,4,1)="4","T",
                if(mid(%1%,4,1)="5","U",
                if(mid(%1%,4,1)="6","V",
                if(mid(%1%,4,1)="7","W",
                if(mid(%1%,4,1)="8","X",
                if(mid(%1%,4,1)="9","Y",
                if(mid(%1%,4,1)="A","Z",""))))))))))),
            if(mid(%1%,3,1)="6",
                if(mid(%1%,4,1)="1","a",
                if(mid(%1%,4,1)="2","b",
                if(mid(%1%,4,1)="3","c",
                if(mid(%1%,4,1)="4","d",
                if(mid(%1%,4,1)="5","e",
                if(mid(%1%,4,1)="6","f",
                if(mid(%1%,4,1)="7","g",
                if(mid(%1%,4,1)="8","h",
                if(mid(%1%,4,1)="9","i",
                if(mid(%1%,4,1)="A","j",
                if(mid(%1%,4,1)="B","k",
                if(mid(%1%,4,1)="C","l",
                if(mid(%1%,4,1)="D","m",
                if(mid(%1%,4,1)="E","n",
                if(mid(%1%,4,1)="F","o",""))))))))))))))),
            if(mid(%1%,3,1)="7",
                if(mid(%1%,4,1)="0","p",
                if(mid(%1%,4,1)="1","q",
                if(mid(%1%,4,1)="2","r",
                if(mid(%1%,4,1)="3","s",
                if(mid(%1%,4,1)="4","t",
                if(mid(%1%,4,1)="5","u",
                if(mid(%1%,4,1)="6","v",
                if(mid(%1%,4,1)="7","w",
                if(mid(%1%,4,1)="8","x",
                if(mid(%1%,4,1)="9","y",
                if(mid(%1%,4,1)="A","z",""))))))))))),"")))))),
        if(mid(%1%,5,1)="3",mid(%1%,6,1),
            if(mid(%1%,5,1)="2",
                if(mid(%1%,6,1)="C",",",
                if(mid(%1%,6,1)="E",".","")),
            if(mid(%1%,5,1)="4",
                if(mid(%1%,6,1)="1","A",
                if(mid(%1%,6,1)="2","B",
                if(mid(%1%,6,1)="3","C",
                if(mid(%1%,6,1)="4","D",
                if(mid(%1%,6,1)="5","E",
                if(mid(%1%,6,1)="6","F",
                if(mid(%1%,6,1)="7","G",
                if(mid(%1%,6,1)="8","H",
                if(mid(%1%,6,1)="9","I",
                if(mid(%1%,6,1)="A","J",
                if(mid(%1%,6,1)="B","K",
                if(mid(%1%,6,1)="C","L",
                if(mid(%1%,6,1)="D","M",
                if(mid(%1%,6,1)="E","N",
                if(mid(%1%,6,1)="F","O",""))))))))))))))),
            if(mid(%1%,5,1)="5",
                if(mid(%1%,6,1)="0","P",
                if(mid(%1%,6,1)="1","Q",
                if(mid(%1%,6,1)="2","R",
                if(mid(%1%,6,1)="3","S",
                if(mid(%1%,6,1)="4","T",
                if(mid(%1%,6,1)="5","U",
                if(mid(%1%,6,1)="6","V",
                if(mid(%1%,6,1)="7","W",
                if(mid(%1%,6,1)="8","X",
                if(mid(%1%,6,1)="9","Y",
                if(mid(%1%,6,1)="A","Z",""))))))))))),
            if(mid(%1%,5,1)="6",
                if(mid(%1%,6,1)="1","a",
                if(mid(%1%,6,1)="2","b",
                if(mid(%1%,6,1)="3","c",
                if(mid(%1%,6,1)="4","d",
                if(mid(%1%,6,1)="5","e",
                if(mid(%1%,6,1)="6","f",
                if(mid(%1%,6,1)="7","g",
                if(mid(%1%,6,1)="8","h",
                if(mid(%1%,6,1)="9","i",
                if(mid(%1%,6,1)="A","j",
                if(mid(%1%,6,1)="B","k",
                if(mid(%1%,6,1)="C","l",
                if(mid(%1%,6,1)="D","m",
                if(mid(%1%,6,1)="E","n",
                if(mid(%1%,6,1)="F","o",""))))))))))))))),
            if(mid(%1%,5,1)="7",
                if(mid(%1%,6,1)="0","p",
                if(mid(%1%,6,1)="1","q",
                if(mid(%1%,6,1)="2","r",
                if(mid(%1%,6,1)="3","s",
                if(mid(%1%,6,1)="4","t",
                if(mid(%1%,6,1)="5","u",
                if(mid(%1%,6,1)="6","v",
                if(mid(%1%,6,1)="7","w",
                if(mid(%1%,6,1)="8","x",
                if(mid(%1%,6,1)="9","y",
                if(mid(%1%,6,1)="A","z",""))))))))))),"")))))),
        if(mid(%1%,7,1)="3",mid(%1%,8,1),
            if(mid(%1%,7,1)="2",
                if(mid(%1%,8,1)="C",",",
                if(mid(%1%,8,1)="E",".","")),
            if(mid(%1%,7,1)="4",
                if(mid(%1%,8,1)="1","A",
                if(mid(%1%,8,1)="2","B",
                if(mid(%1%,8,1)="3","C",
                if(mid(%1%,8,1)="4","D",
                if(mid(%1%,8,1)="5","E",
                if(mid(%1%,8,1)="6","F",
                if(mid(%1%,8,1)="7","G",
                if(mid(%1%,8,1)="8","H",
                if(mid(%1%,8,1)="9","I",
                if(mid(%1%,8,1)="A","J",
                if(mid(%1%,8,1)="B","K",
                if(mid(%1%,8,1)="C","L",
                if(mid(%1%,8,1)="D","M",
                if(mid(%1%,8,1)="E","N",
                if(mid(%1%,8,1)="F","O",""))))))))))))))),
            if(mid(%1%,7,1)="5",
                if(mid(%1%,8,1)="0","P",
                if(mid(%1%,8,1)="1","Q",
                if(mid(%1%,8,1)="2","R",
                if(mid(%1%,8,1)="3","S",
                if(mid(%1%,8,1)="4","T",
                if(mid(%1%,8,1)="5","U",
                if(mid(%1%,8,1)="6","V",
                if(mid(%1%,8,1)="7","W",
                if(mid(%1%,8,1)="8","X",
                if(mid(%1%,8,1)="9","Y",
                if(mid(%1%,8,1)="A","Z",""))))))))))),
            if(mid(%1%,7,1)="6",
                if(mid(%1%,8,1)="1","a",
                if(mid(%1%,8,1)="2","b",
                if(mid(%1%,8,1)="3","c",
                if(mid(%1%,8,1)="4","d",
                if(mid(%1%,8,1)="5","e",
                if(mid(%1%,8,1)="6","f",
                if(mid(%1%,8,1)="7","g",
                if(mid(%1%,8,1)="8","h",
                if(mid(%1%,8,1)="9","i",
                if(mid(%1%,8,1)="A","j",
                if(mid(%1%,8,1)="B","k",
                if(mid(%1%,8,1)="C","l",
                if(mid(%1%,8,1)="D","m",
                if(mid(%1%,8,1)="E","n",
                if(mid(%1%,8,1)="F","o",""))))))))))))))),
            if(mid(%1%,7,1)="7",
                if(mid(%1%,8,1)="0","p",
                if(mid(%1%,8,1)="1","q",
                if(mid(%1%,8,1)="2","r",
                if(mid(%1%,8,1)="3","s",
                if(mid(%1%,8,1)="4","t",
                if(mid(%1%,8,1)="5","u",
                if(mid(%1%,8,1)="6","v",
                if(mid(%1%,8,1)="7","w",
                if(mid(%1%,8,1)="8","x",
                if(mid(%1%,8,1)="9","y",
                if(mid(%1%,8,1)="A","z",""))))))))))),"")))))),
        if(mid(%1%,9,1)="3",mid(%1%,10,1),
            if(mid(%1%,9,1)="2",
                if(mid(%1%,10,1)="C",",",
                if(mid(%1%,10,1)="E",".","")),
            if(mid(%1%,9,1)="4",
                if(mid(%1%,10,1)="1","A",
                if(mid(%1%,10,1)="2","B",
                if(mid(%1%,10,1)="3","C",
                if(mid(%1%,10,1)="4","D",
                if(mid(%1%,10,1)="5","E",
                if(mid(%1%,10,1)="6","F",
                if(mid(%1%,10,1)="7","G",
                if(mid(%1%,10,1)="8","H",
                if(mid(%1%,10,1)="9","I",
                if(mid(%1%,10,1)="A","J",
                if(mid(%1%,10,1)="B","K",
                if(mid(%1%,10,1)="C","L",
                if(mid(%1%,10,1)="D","M",
                if(mid(%1%,10,1)="E","N",
                if(mid(%1%,10,1)="F","O",""))))))))))))))),
            if(mid(%1%,9,1)="5",
                if(mid(%1%,10,1)="0","P",
                if(mid(%1%,10,1)="1","Q",
                if(mid(%1%,10,1)="2","R",
                if(mid(%1%,10,1)="3","S",
                if(mid(%1%,10,1)="4","T",
                if(mid(%1%,10,1)="5","U",
                if(mid(%1%,10,1)="6","V",
                if(mid(%1%,10,1)="7","W",
                if(mid(%1%,10,1)="8","X",
                if(mid(%1%,10,1)="9","Y",
                if(mid(%1%,10,1)="A","Z",""))))))))))),
            if(mid(%1%,9,1)="6",
                if(mid(%1%,10,1)="1","a",
                if(mid(%1%,10,1)="2","b",
                if(mid(%1%,10,1)="3","c",
                if(mid(%1%,10,1)="4","d",
                if(mid(%1%,10,1)="5","e",
                if(mid(%1%,10,1)="6","f",
                if(mid(%1%,10,1)="7","g",
                if(mid(%1%,10,1)="8","h",
                if(mid(%1%,10,1)="9","i",
                if(mid(%1%,10,1)="A","j",
                if(mid(%1%,10,1)="B","k",
                if(mid(%1%,10,1)="C","l",
                if(mid(%1%,10,1)="D","m",
                if(mid(%1%,10,1)="E","n",
                if(mid(%1%,10,1)="F","o",""))))))))))))))),
            if(mid(%1%,9,1)="7",
                if(mid(%1%,10,1)="0","p",
                if(mid(%1%,10,1)="1","q",
                if(mid(%1%,10,1)="2","r",
                if(mid(%1%,10,1)="3","s",
                if(mid(%1%,10,1)="4","t",
                if(mid(%1%,10,1)="5","u",
                if(mid(%1%,10,1)="6","v",
                if(mid(%1%,10,1)="7","w",
                if(mid(%1%,10,1)="8","x",
                if(mid(%1%,10,1)="9","y",
                if(mid(%1%,10,1)="A","z",""))))))))))),"")))))),
        if(mid(%1%,11,1)="3",mid(%1%,12,1),
            if(mid(%1%,11,1)="2",
                if(mid(%1%,12,1)="C",",",
                if(mid(%1%,12,1)="E",".","")),
            if(mid(%1%,11,1)="4",
                if(mid(%1%,12,1)="1","A",
                if(mid(%1%,12,1)="2","B",
                if(mid(%1%,12,1)="3","C",
                if(mid(%1%,12,1)="4","D",
                if(mid(%1%,12,1)="5","E",
                if(mid(%1%,12,1)="6","F",
                if(mid(%1%,12,1)="7","G",
                if(mid(%1%,12,1)="8","H",
                if(mid(%1%,12,1)="9","I",
                if(mid(%1%,12,1)="A","J",
                if(mid(%1%,12,1)="B","K",
                if(mid(%1%,12,1)="C","L",
                if(mid(%1%,12,1)="D","M",
                if(mid(%1%,12,1)="E","N",
                if(mid(%1%,12,1)="F","O",""))))))))))))))),
            if(mid(%1%,11,1)="5",
                if(mid(%1%,12,1)="0","P",
                if(mid(%1%,12,1)="1","Q",
                if(mid(%1%,12,1)="2","R",
                if(mid(%1%,12,1)="3","S",
                if(mid(%1%,12,1)="4","T",
                if(mid(%1%,12,1)="5","U",
                if(mid(%1%,12,1)="6","V",
                if(mid(%1%,12,1)="7","W",
                if(mid(%1%,12,1)="8","X",
                if(mid(%1%,12,1)="9","Y",
                if(mid(%1%,12,1)="A","Z",""))))))))))),
            if(mid(%1%,11,1)="6",
                if(mid(%1%,12,1)="1","a",
                if(mid(%1%,12,1)="2","b",
                if(mid(%1%,12,1)="3","c",
                if(mid(%1%,12,1)="4","d",
                if(mid(%1%,12,1)="5","e",
                if(mid(%1%,12,1)="6","f",
                if(mid(%1%,12,1)="7","g",
                if(mid(%1%,12,1)="8","h",
                if(mid(%1%,12,1)="9","i",
                if(mid(%1%,12,1)="A","j",
                if(mid(%1%,12,1)="B","k",
                if(mid(%1%,12,1)="C","l",
                if(mid(%1%,12,1)="D","m",
                if(mid(%1%,12,1)="E","n",
                if(mid(%1%,12,1)="F","o",""))))))))))))))),
            if(mid(%1%,11,1)="7",
                if(mid(%1%,12,1)="0","p",
                if(mid(%1%,12,1)="1","q",
                if(mid(%1%,12,1)="2","r",
                if(mid(%1%,12,1)="3","s",
                if(mid(%1%,12,1)="4","t",
                if(mid(%1%,12,1)="5","u",
                if(mid(%1%,12,1)="6","v",
                if(mid(%1%,12,1)="7","w",
                if(mid(%1%,12,1)="8","x",
                if(mid(%1%,12,1)="9","y",
                if(mid(%1%,12,1)="A","z",""))))))))))),"")))))),
        if(mid(%1%,13,1)="3",mid(%1%,14,1),
            if(mid(%1%,13,1)="2",
                if(mid(%1%,14,1)="C",",",
                if(mid(%1%,14,1)="E",".","")),
            if(mid(%1%,13,1)="4",
                if(mid(%1%,14,1)="1","A",
                if(mid(%1%,14,1)="2","B",
                if(mid(%1%,14,1)="3","C",
                if(mid(%1%,14,1)="4","D",
                if(mid(%1%,14,1)="5","E",
                if(mid(%1%,14,1)="6","F",
                if(mid(%1%,14,1)="7","G",
                if(mid(%1%,14,1)="8","H",
                if(mid(%1%,14,1)="9","I",
                if(mid(%1%,14,1)="A","J",
                if(mid(%1%,14,1)="B","K",
                if(mid(%1%,14,1)="C","L",
                if(mid(%1%,14,1)="D","M",
                if(mid(%1%,14,1)="E","N",
                if(mid(%1%,14,1)="F","O",""))))))))))))))),
            if(mid(%1%,13,1)="5",
                if(mid(%1%,14,1)="0","P",
                if(mid(%1%,14,1)="1","Q",
                if(mid(%1%,14,1)="2","R",
                if(mid(%1%,14,1)="3","S",
                if(mid(%1%,14,1)="4","T",
                if(mid(%1%,14,1)="5","U",
                if(mid(%1%,14,1)="6","V",
                if(mid(%1%,14,1)="7","W",
                if(mid(%1%,14,1)="8","X",
                if(mid(%1%,14,1)="9","Y",
                if(mid(%1%,14,1)="A","Z",""))))))))))),
            if(mid(%1%,13,1)="6",
                if(mid(%1%,14,1)="1","a",
                if(mid(%1%,14,1)="2","b",
                if(mid(%1%,14,1)="3","c",
                if(mid(%1%,14,1)="4","d",
                if(mid(%1%,14,1)="5","e",
                if(mid(%1%,14,1)="6","f",
                if(mid(%1%,14,1)="7","g",
                if(mid(%1%,14,1)="8","h",
                if(mid(%1%,14,1)="9","i",
                if(mid(%1%,14,1)="A","j",
                if(mid(%1%,14,1)="B","k",
                if(mid(%1%,14,1)="C","l",
                if(mid(%1%,14,1)="D","m",
                if(mid(%1%,14,1)="E","n",
                if(mid(%1%,14,1)="F","o",""))))))))))))))),
            if(mid(%1%,13,1)="7",
                if(mid(%1%,14,1)="0","p",
                if(mid(%1%,14,1)="1","q",
                if(mid(%1%,14,1)="2","r",
                if(mid(%1%,14,1)="3","s",
                if(mid(%1%,14,1)="4","t",
                if(mid(%1%,14,1)="5","u",
                if(mid(%1%,14,1)="6","v",
                if(mid(%1%,14,1)="7","w",
                if(mid(%1%,14,1)="8","x",
                if(mid(%1%,14,1)="9","y",
                if(mid(%1%,14,1)="A","z",""))))))))))),"")))))),
        if(mid(%1%,15,1)="3",mid(%1%,16,1),
            if(mid(%1%,15,1)="2",
                if(mid(%1%,16,1)="C",",",
                if(mid(%1%,16,1)="E",".","")),
            if(mid(%1%,15,1)="4",
                if(mid(%1%,16,1)="1","A",
                if(mid(%1%,16,1)="2","B",
                if(mid(%1%,16,1)="3","C",
                if(mid(%1%,16,1)="4","D",
                if(mid(%1%,16,1)="5","E",
                if(mid(%1%,16,1)="6","F",
                if(mid(%1%,16,1)="7","G",
                if(mid(%1%,16,1)="8","H",
                if(mid(%1%,16,1)="9","I",
                if(mid(%1%,16,1)="A","J",
                if(mid(%1%,16,1)="B","K",
                if(mid(%1%,16,1)="C","L",
                if(mid(%1%,16,1)="D","M",
                if(mid(%1%,16,1)="E","N",
                if(mid(%1%,16,1)="F","O",""))))))))))))))),
            if(mid(%1%,15,1)="5",
                if(mid(%1%,16,1)="0","P",
                if(mid(%1%,16,1)="1","Q",
                if(mid(%1%,16,1)="2","R",
                if(mid(%1%,16,1)="3","S",
                if(mid(%1%,16,1)="4","T",
                if(mid(%1%,16,1)="5","U",
                if(mid(%1%,16,1)="6","V",
                if(mid(%1%,16,1)="7","W",
                if(mid(%1%,16,1)="8","X",
                if(mid(%1%,16,1)="9","Y",
                if(mid(%1%,16,1)="A","Z",""))))))))))),
            if(mid(%1%,15,1)="6",
                if(mid(%1%,16,1)="1","a",
                if(mid(%1%,16,1)="2","b",
                if(mid(%1%,16,1)="3","c",
                if(mid(%1%,16,1)="4","d",
                if(mid(%1%,16,1)="5","e",
                if(mid(%1%,16,1)="6","f",
                if(mid(%1%,16,1)="7","g",
                if(mid(%1%,16,1)="8","h",
                if(mid(%1%,16,1)="9","i",
                if(mid(%1%,16,1)="A","j",
                if(mid(%1%,16,1)="B","k",
                if(mid(%1%,16,1)="C","l",
                if(mid(%1%,16,1)="D","m",
                if(mid(%1%,16,1)="E","n",
                if(mid(%1%,16,1)="F","o",""))))))))))))))),
            if(mid(%1%,15,1)="7",
                if(mid(%1%,16,1)="0","p",
                if(mid(%1%,16,1)="1","q",
                if(mid(%1%,16,1)="2","r",
                if(mid(%1%,16,1)="3","s",
                if(mid(%1%,16,1)="4","t",
                if(mid(%1%,16,1)="5","u",
                if(mid(%1%,16,1)="6","v",
                if(mid(%1%,16,1)="7","w",
                if(mid(%1%,16,1)="8","x",
                if(mid(%1%,16,1)="9","y",
                if(mid(%1%,16,1)="A","z",""))))))))))),""))))))
    ),concatenate(
        if(mid(%1%,17,1)="3",mid(%1%,18,1),
            if(mid(%1%,17,1)="2",
                if(mid(%1%,18,1)="C",",",
                if(mid(%1%,18,1)="E",".","")),
            if(mid(%1%,17,1)="4",
                if(mid(%1%,18,1)="1","A",
                if(mid(%1%,18,1)="2","B",
                if(mid(%1%,18,1)="3","C",
                if(mid(%1%,18,1)="4","D",
                if(mid(%1%,18,1)="5","E",
                if(mid(%1%,18,1)="6","F",
                if(mid(%1%,18,1)="7","G",
                if(mid(%1%,18,1)="8","H",
                if(mid(%1%,18,1)="9","I",
                if(mid(%1%,18,1)="A","J",
                if(mid(%1%,18,1)="B","K",
                if(mid(%1%,18,1)="C","L",
                if(mid(%1%,18,1)="D","M",
                if(mid(%1%,18,1)="E","N",
                if(mid(%1%,18,1)="F","O",""))))))))))))))),
            if(mid(%1%,17,1)="5",
                if(mid(%1%,18,1)="0","P",
                if(mid(%1%,18,1)="1","Q",
                if(mid(%1%,18,1)="2","R",
                if(mid(%1%,18,1)="3","S",
                if(mid(%1%,18,1)="4","T",
                if(mid(%1%,18,1)="5","U",
                if(mid(%1%,18,1)="6","V",
                if(mid(%1%,18,1)="7","W",
                if(mid(%1%,18,1)="8","X",
                if(mid(%1%,18,1)="9","Y",
                if(mid(%1%,18,1)="A","Z",""))))))))))),
            if(mid(%1%,17,1)="6",
                if(mid(%1%,18,1)="1","a",
                if(mid(%1%,18,1)="2","b",
                if(mid(%1%,18,1)="3","c",
                if(mid(%1%,18,1)="4","d",
                if(mid(%1%,18,1)="5","e",
                if(mid(%1%,18,1)="6","f",
                if(mid(%1%,18,1)="7","g",
                if(mid(%1%,18,1)="8","h",
                if(mid(%1%,18,1)="9","i",
                if(mid(%1%,18,1)="A","j",
                if(mid(%1%,18,1)="B","k",
                if(mid(%1%,18,1)="C","l",
                if(mid(%1%,18,1)="D","m",
                if(mid(%1%,18,1)="E","n",
                if(mid(%1%,18,1)="F","o",""))))))))))))))),
            if(mid(%1%,17,1)="7",
                if(mid(%1%,18,1)="0","p",
                if(mid(%1%,18,1)="1","q",
                if(mid(%1%,18,1)="2","r",
                if(mid(%1%,18,1)="3","s",
                if(mid(%1%,18,1)="4","t",
                if(mid(%1%,18,1)="5","u",
                if(mid(%1%,18,1)="6","v",
                if(mid(%1%,18,1)="7","w",
                if(mid(%1%,18,1)="8","x",
                if(mid(%1%,18,1)="9","y",
                if(mid(%1%,18,1)="A","z",""))))))))))),"")))))),
        if(mid(%1%,19,1)="3",mid(%1%,20,1),
            if(mid(%1%,19,1)="2",
                if(mid(%1%,20,1)="C",",",
                if(mid(%1%,20,1)="E",".","")),
            if(mid(%1%,19,1)="4",
                if(mid(%1%,20,1)="1","A",
                if(mid(%1%,20,1)="2","B",
                if(mid(%1%,20,1)="3","C",
                if(mid(%1%,20,1)="4","D",
                if(mid(%1%,20,1)="5","E",
                if(mid(%1%,20,1)="6","F",
                if(mid(%1%,20,1)="7","G",
                if(mid(%1%,20,1)="8","H",
                if(mid(%1%,20,1)="9","I",
                if(mid(%1%,20,1)="A","J",
                if(mid(%1%,20,1)="B","K",
                if(mid(%1%,20,1)="C","L",
                if(mid(%1%,20,1)="D","M",
                if(mid(%1%,20,1)="E","N",
                if(mid(%1%,20,1)="F","O",""))))))))))))))),
            if(mid(%1%,19,1)="5",
                if(mid(%1%,20,1)="0","P",
                if(mid(%1%,20,1)="1","Q",
                if(mid(%1%,20,1)="2","R",
                if(mid(%1%,20,1)="3","S",
                if(mid(%1%,20,1)="4","T",
                if(mid(%1%,20,1)="5","U",
                if(mid(%1%,20,1)="6","V",
                if(mid(%1%,20,1)="7","W",
                if(mid(%1%,20,1)="8","X",
                if(mid(%1%,20,1)="9","Y",
                if(mid(%1%,20,1)="A","Z",""))))))))))),
            if(mid(%1%,19,1)="6",
                if(mid(%1%,20,1)="1","a",
                if(mid(%1%,20,1)="2","b",
                if(mid(%1%,20,1)="3","c",
                if(mid(%1%,20,1)="4","d",
                if(mid(%1%,20,1)="5","e",
                if(mid(%1%,20,1)="6","f",
                if(mid(%1%,20,1)="7","g",
                if(mid(%1%,20,1)="8","h",
                if(mid(%1%,20,1)="9","i",
                if(mid(%1%,20,1)="A","j",
                if(mid(%1%,20,1)="B","k",
                if(mid(%1%,20,1)="C","l",
                if(mid(%1%,20,1)="D","m",
                if(mid(%1%,20,1)="E","n",
                if(mid(%1%,20,1)="F","o",""))))))))))))))),
            if(mid(%1%,19,1)="7",
                if(mid(%1%,20,1)="0","p",
                if(mid(%1%,20,1)="1","q",
                if(mid(%1%,20,1)="2","r",
                if(mid(%1%,20,1)="3","s",
                if(mid(%1%,20,1)="4","t",
                if(mid(%1%,20,1)="5","u",
                if(mid(%1%,20,1)="6","v",
                if(mid(%1%,20,1)="7","w",
                if(mid(%1%,20,1)="8","x",
                if(mid(%1%,20,1)="9","y",
                if(mid(%1%,20,1)="A","z",""))))))))))),"")))))),
        if(mid(%1%,21,1)="3",mid(%1%,22,1),
            if(mid(%1%,21,1)="2",
                if(mid(%1%,22,1)="C",",",
                if(mid(%1%,22,1)="E",".","")),
            if(mid(%1%,21,1)="4",
                if(mid(%1%,22,1)="1","A",
                if(mid(%1%,22,1)="2","B",
                if(mid(%1%,22,1)="3","C",
                if(mid(%1%,22,1)="4","D",
                if(mid(%1%,22,1)="5","E",
                if(mid(%1%,22,1)="6","F",
                if(mid(%1%,22,1)="7","G",
                if(mid(%1%,22,1)="8","H",
                if(mid(%1%,22,1)="9","I",
                if(mid(%1%,22,1)="A","J",
                if(mid(%1%,22,1)="B","K",
                if(mid(%1%,22,1)="C","L",
                if(mid(%1%,22,1)="D","M",
                if(mid(%1%,22,1)="E","N",
                if(mid(%1%,22,1)="F","O",""))))))))))))))),
            if(mid(%1%,21,1)="5",
                if(mid(%1%,22,1)="0","P",
                if(mid(%1%,22,1)="1","Q",
                if(mid(%1%,22,1)="2","R",
                if(mid(%1%,22,1)="3","S",
                if(mid(%1%,22,1)="4","T",
                if(mid(%1%,22,1)="5","U",
                if(mid(%1%,22,1)="6","V",
                if(mid(%1%,22,1)="7","W",
                if(mid(%1%,22,1)="8","X",
                if(mid(%1%,22,1)="9","Y",
                if(mid(%1%,22,1)="A","Z",""))))))))))),
            if(mid(%1%,21,1)="6",
                if(mid(%1%,22,1)="1","a",
                if(mid(%1%,22,1)="2","b",
                if(mid(%1%,22,1)="3","c",
                if(mid(%1%,22,1)="4","d",
                if(mid(%1%,22,1)="5","e",
                if(mid(%1%,22,1)="6","f",
                if(mid(%1%,22,1)="7","g",
                if(mid(%1%,22,1)="8","h",
                if(mid(%1%,22,1)="9","i",
                if(mid(%1%,22,1)="A","j",
                if(mid(%1%,22,1)="B","k",
                if(mid(%1%,22,1)="C","l",
                if(mid(%1%,22,1)="D","m",
                if(mid(%1%,22,1)="E","n",
                if(mid(%1%,22,1)="F","o",""))))))))))))))),
            if(mid(%1%,21,1)="7",
                if(mid(%1%,22,1)="0","p",
                if(mid(%1%,22,1)="1","q",
                if(mid(%1%,22,1)="2","r",
                if(mid(%1%,22,1)="3","s",
                if(mid(%1%,22,1)="4","t",
                if(mid(%1%,22,1)="5","u",
                if(mid(%1%,22,1)="6","v",
                if(mid(%1%,22,1)="7","w",
                if(mid(%1%,22,1)="8","x",
                if(mid(%1%,22,1)="9","y",
                if(mid(%1%,22,1)="A","z",""))))))))))),"")))))),
        if(mid(%1%,23,1)="3",mid(%1%,24,1),
            if(mid(%1%,23,1)="2",
                if(mid(%1%,24,1)="C",",",
                if(mid(%1%,24,1)="E",".","")),
            if(mid(%1%,23,1)="4",
                if(mid(%1%,24,1)="1","A",
                if(mid(%1%,24,1)="2","B",
                if(mid(%1%,24,1)="3","C",
                if(mid(%1%,24,1)="4","D",
                if(mid(%1%,24,1)="5","E",
                if(mid(%1%,24,1)="6","F",
                if(mid(%1%,24,1)="7","G",
                if(mid(%1%,24,1)="8","H",
                if(mid(%1%,24,1)="9","I",
                if(mid(%1%,24,1)="A","J",
                if(mid(%1%,24,1)="B","K",
                if(mid(%1%,24,1)="C","L",
                if(mid(%1%,24,1)="D","M",
                if(mid(%1%,24,1)="E","N",
                if(mid(%1%,24,1)="F","O",""))))))))))))))),
            if(mid(%1%,23,1)="5",
                if(mid(%1%,24,1)="0","P",
                if(mid(%1%,24,1)="1","Q",
                if(mid(%1%,24,1)="2","R",
                if(mid(%1%,24,1)="3","S",
                if(mid(%1%,24,1)="4","T",
                if(mid(%1%,24,1)="5","U",
                if(mid(%1%,24,1)="6","V",
                if(mid(%1%,24,1)="7","W",
                if(mid(%1%,24,1)="8","X",
                if(mid(%1%,24,1)="9","Y",
                if(mid(%1%,24,1)="A","Z",""))))))))))),
            if(mid(%1%,23,1)="6",
                if(mid(%1%,24,1)="1","a",
                if(mid(%1%,24,1)="2","b",
                if(mid(%1%,24,1)="3","c",
                if(mid(%1%,24,1)="4","d",
                if(mid(%1%,24,1)="5","e",
                if(mid(%1%,24,1)="6","f",
                if(mid(%1%,24,1)="7","g",
                if(mid(%1%,24,1)="8","h",
                if(mid(%1%,24,1)="9","i",
                if(mid(%1%,24,1)="A","j",
                if(mid(%1%,24,1)="B","k",
                if(mid(%1%,24,1)="C","l",
                if(mid(%1%,24,1)="D","m",
                if(mid(%1%,24,1)="E","n",
                if(mid(%1%,24,1)="F","o",""))))))))))))))),
            if(mid(%1%,23,1)="7",
                if(mid(%1%,24,1)="0","p",
                if(mid(%1%,24,1)="1","q",
                if(mid(%1%,24,1)="2","r",
                if(mid(%1%,24,1)="3","s",
                if(mid(%1%,24,1)="4","t",
                if(mid(%1%,24,1)="5","u",
                if(mid(%1%,24,1)="6","v",
                if(mid(%1%,24,1)="7","w",
                if(mid(%1%,24,1)="8","x",
                if(mid(%1%,24,1)="9","y",
                if(mid(%1%,24,1)="A","z",""))))))))))),"")))))),
        if(mid(%1%,25,1)="3",mid(%1%,26,1),
            if(mid(%1%,25,1)="2",
                if(mid(%1%,26,1)="C",",",
                if(mid(%1%,26,1)="E",".","")),
            if(mid(%1%,25,1)="4",
                if(mid(%1%,26,1)="1","A",
                if(mid(%1%,26,1)="2","B",
                if(mid(%1%,26,1)="3","C",
                if(mid(%1%,26,1)="4","D",
                if(mid(%1%,26,1)="5","E",
                if(mid(%1%,26,1)="6","F",
                if(mid(%1%,26,1)="7","G",
                if(mid(%1%,26,1)="8","H",
                if(mid(%1%,26,1)="9","I",
                if(mid(%1%,26,1)="A","J",
                if(mid(%1%,26,1)="B","K",
                if(mid(%1%,26,1)="C","L",
                if(mid(%1%,26,1)="D","M",
                if(mid(%1%,26,1)="E","N",
                if(mid(%1%,26,1)="F","O",""))))))))))))))),
            if(mid(%1%,25,1)="5",
                if(mid(%1%,26,1)="0","P",
                if(mid(%1%,26,1)="1","Q",
                if(mid(%1%,26,1)="2","R",
                if(mid(%1%,26,1)="3","S",
                if(mid(%1%,26,1)="4","T",
                if(mid(%1%,26,1)="5","U",
                if(mid(%1%,26,1)="6","V",
                if(mid(%1%,26,1)="7","W",
                if(mid(%1%,26,1)="8","X",
                if(mid(%1%,26,1)="9","Y",
                if(mid(%1%,26,1)="A","Z",""))))))))))),
            if(mid(%1%,25,1)="6",
                if(mid(%1%,26,1)="1","a",
                if(mid(%1%,26,1)="2","b",
                if(mid(%1%,26,1)="3","c",
                if(mid(%1%,26,1)="4","d",
                if(mid(%1%,26,1)="5","e",
                if(mid(%1%,26,1)="6","f",
                if(mid(%1%,26,1)="7","g",
                if(mid(%1%,26,1)="8","h",
                if(mid(%1%,26,1)="9","i",
                if(mid(%1%,26,1)="A","j",
                if(mid(%1%,26,1)="B","k",
                if(mid(%1%,26,1)="C","l",
                if(mid(%1%,26,1)="D","m",
                if(mid(%1%,26,1)="E","n",
                if(mid(%1%,26,1)="F","o",""))))))))))))))),
            if(mid(%1%,25,1)="7",
                if(mid(%1%,26,1)="0","p",
                if(mid(%1%,26,1)="1","q",
                if(mid(%1%,26,1)="2","r",
                if(mid(%1%,26,1)="3","s",
                if(mid(%1%,26,1)="4","t",
                if(mid(%1%,26,1)="5","u",
                if(mid(%1%,26,1)="6","v",
                if(mid(%1%,26,1)="7","w",
                if(mid(%1%,26,1)="8","x",
                if(mid(%1%,26,1)="9","y",
                if(mid(%1%,26,1)="A","z",""))))))))))),"")))))),
        if(mid(%1%,27,1)="3",mid(%1%,28,1),
            if(mid(%1%,27,1)="2",
                if(mid(%1%,28,1)="C",",",
                if(mid(%1%,28,1)="E",".","")),
            if(mid(%1%,27,1)="4",
                if(mid(%1%,28,1)="1","A",
                if(mid(%1%,28,1)="2","B",
                if(mid(%1%,28,1)="3","C",
                if(mid(%1%,28,1)="4","D",
                if(mid(%1%,28,1)="5","E",
                if(mid(%1%,28,1)="6","F",
                if(mid(%1%,28,1)="7","G",
                if(mid(%1%,28,1)="8","H",
                if(mid(%1%,28,1)="9","I",
                if(mid(%1%,28,1)="A","J",
                if(mid(%1%,28,1)="B","K",
                if(mid(%1%,28,1)="C","L",
                if(mid(%1%,28,1)="D","M",
                if(mid(%1%,28,1)="E","N",
                if(mid(%1%,28,1)="F","O",""))))))))))))))),
            if(mid(%1%,27,1)="5",
                if(mid(%1%,28,1)="0","P",
                if(mid(%1%,28,1)="1","Q",
                if(mid(%1%,28,1)="2","R",
                if(mid(%1%,28,1)="3","S",
                if(mid(%1%,28,1)="4","T",
                if(mid(%1%,28,1)="5","U",
                if(mid(%1%,28,1)="6","V",
                if(mid(%1%,28,1)="7","W",
                if(mid(%1%,28,1)="8","X",
                if(mid(%1%,28,1)="9","Y",
                if(mid(%1%,28,1)="A","Z",""))))))))))),
            if(mid(%1%,27,1)="6",
                if(mid(%1%,28,1)="1","a",
                if(mid(%1%,28,1)="2","b",
                if(mid(%1%,28,1)="3","c",
                if(mid(%1%,28,1)="4","d",
                if(mid(%1%,28,1)="5","e",
                if(mid(%1%,28,1)="6","f",
                if(mid(%1%,28,1)="7","g",
                if(mid(%1%,28,1)="8","h",
                if(mid(%1%,28,1)="9","i",
                if(mid(%1%,28,1)="A","j",
                if(mid(%1%,28,1)="B","k",
                if(mid(%1%,28,1)="C","l",
                if(mid(%1%,28,1)="D","m",
                if(mid(%1%,28,1)="E","n",
                if(mid(%1%,28,1)="F","o",""))))))))))))))),
            if(mid(%1%,27,1)="7",
                if(mid(%1%,28,1)="0","p",
                if(mid(%1%,28,1)="1","q",
                if(mid(%1%,28,1)="2","r",
                if(mid(%1%,28,1)="3","s",
                if(mid(%1%,28,1)="4","t",
                if(mid(%1%,28,1)="5","u",
                if(mid(%1%,28,1)="6","v",
                if(mid(%1%,28,1)="7","w",
                if(mid(%1%,28,1)="8","x",
                if(mid(%1%,28,1)="9","y",
                if(mid(%1%,28,1)="A","z",""))))))))))),"")))))),
        if(mid(%1%,29,1)="3",mid(%1%,30,1),
            if(mid(%1%,29,1)="2",
                if(mid(%1%,30,1)="C",",",
                if(mid(%1%,30,1)="E",".","")),
            if(mid(%1%,29,1)="4",
                if(mid(%1%,30,1)="1","A",
                if(mid(%1%,30,1)="2","B",
                if(mid(%1%,30,1)="3","C",
                if(mid(%1%,30,1)="4","D",
                if(mid(%1%,30,1)="5","E",
                if(mid(%1%,30,1)="6","F",
                if(mid(%1%,30,1)="7","G",
                if(mid(%1%,30,1)="8","H",
                if(mid(%1%,30,1)="9","I",
                if(mid(%1%,30,1)="A","J",
                if(mid(%1%,30,1)="B","K",
                if(mid(%1%,30,1)="C","L",
                if(mid(%1%,30,1)="D","M",
                if(mid(%1%,30,1)="E","N",
                if(mid(%1%,30,1)="F","O",""))))))))))))))),
            if(mid(%1%,29,1)="5",
                if(mid(%1%,30,1)="0","P",
                if(mid(%1%,30,1)="1","Q",
                if(mid(%1%,30,1)="2","R",
                if(mid(%1%,30,1)="3","S",
                if(mid(%1%,30,1)="4","T",
                if(mid(%1%,30,1)="5","U",
                if(mid(%1%,30,1)="6","V",
                if(mid(%1%,30,1)="7","W",
                if(mid(%1%,30,1)="8","X",
                if(mid(%1%,30,1)="9","Y",
                if(mid(%1%,30,1)="A","Z",""))))))))))),
            if(mid(%1%,29,1)="6",
                if(mid(%1%,30,1)="1","a",
                if(mid(%1%,30,1)="2","b",
                if(mid(%1%,30,1)="3","c",
                if(mid(%1%,30,1)="4","d",
                if(mid(%1%,30,1)="5","e",
                if(mid(%1%,30,1)="6","f",
                if(mid(%1%,30,1)="7","g",
                if(mid(%1%,30,1)="8","h",
                if(mid(%1%,30,1)="9","i",
                if(mid(%1%,30,1)="A","j",
                if(mid(%1%,30,1)="B","k",
                if(mid(%1%,30,1)="C","l",
                if(mid(%1%,30,1)="D","m",
                if(mid(%1%,30,1)="E","n",
                if(mid(%1%,30,1)="F","o",""))))))))))))))),
            if(mid(%1%,29,1)="7",
                if(mid(%1%,30,1)="0","p",
                if(mid(%1%,30,1)="1","q",
                if(mid(%1%,30,1)="2","r",
                if(mid(%1%,30,1)="3","s",
                if(mid(%1%,30,1)="4","t",
                if(mid(%1%,30,1)="5","u",
                if(mid(%1%,30,1)="6","v",
                if(mid(%1%,30,1)="7","w",
                if(mid(%1%,30,1)="8","x",
                if(mid(%1%,30,1)="9","y",
                if(mid(%1%,30,1)="A","z",""))))))))))),"")))))),
        if(mid(%1%,31,1)="3",mid(%1%,32,1),
            if(mid(%1%,31,1)="2",
                if(mid(%1%,32,1)="C",",",
                if(mid(%1%,32,1)="E",".","")),
            if(mid(%1%,31,1)="4",
                if(mid(%1%,32,1)="1","A",
                if(mid(%1%,32,1)="2","B",
                if(mid(%1%,32,1)="3","C",
                if(mid(%1%,32,1)="4","D",
                if(mid(%1%,32,1)="5","E",
                if(mid(%1%,32,1)="6","F",
                if(mid(%1%,32,1)="7","G",
                if(mid(%1%,32,1)="8","H",
                if(mid(%1%,32,1)="9","I",
                if(mid(%1%,32,1)="A","J",
                if(mid(%1%,32,1)="B","K",
                if(mid(%1%,32,1)="C","L",
                if(mid(%1%,32,1)="D","M",
                if(mid(%1%,32,1)="E","N",
                if(mid(%1%,32,1)="F","O",""))))))))))))))),
            if(mid(%1%,31,1)="5",
                if(mid(%1%,32,1)="0","P",
                if(mid(%1%,32,1)="1","Q",
                if(mid(%1%,32,1)="2","R",
                if(mid(%1%,32,1)="3","S",
                if(mid(%1%,32,1)="4","T",
                if(mid(%1%,32,1)="5","U",
                if(mid(%1%,32,1)="6","V",
                if(mid(%1%,32,1)="7","W",
                if(mid(%1%,32,1)="8","X",
                if(mid(%1%,32,1)="9","Y",
                if(mid(%1%,32,1)="A","Z",""))))))))))),
            if(mid(%1%,31,1)="6",
                if(mid(%1%,32,1)="1","a",
                if(mid(%1%,32,1)="2","b",
                if(mid(%1%,32,1)="3","c",
                if(mid(%1%,32,1)="4","d",
                if(mid(%1%,32,1)="5","e",
                if(mid(%1%,32,1)="6","f",
                if(mid(%1%,32,1)="7","g",
                if(mid(%1%,32,1)="8","h",
                if(mid(%1%,32,1)="9","i",
                if(mid(%1%,32,1)="A","j",
                if(mid(%1%,32,1)="B","k",
                if(mid(%1%,32,1)="C","l",
                if(mid(%1%,32,1)="D","m",
                if(mid(%1%,32,1)="E","n",
                if(mid(%1%,32,1)="F","o",""))))))))))))))),
            if(mid(%1%,31,1)="7",
                if(mid(%1%,32,1)="0","p",
                if(mid(%1%,32,1)="1","q",
                if(mid(%1%,32,1)="2","r",
                if(mid(%1%,32,1)="3","s",
                if(mid(%1%,32,1)="4","t",
                if(mid(%1%,32,1)="5","u",
                if(mid(%1%,32,1)="6","v",
                if(mid(%1%,32,1)="7","w",
                if(mid(%1%,32,1)="8","x",
                if(mid(%1%,32,1)="9","y",
                if(mid(%1%,32,1)="A","z",""))))))))))),""))))))
    ),concatenate(
        if(mid(%1%,33,1)="3",mid(%1%,34,1),
            if(mid(%1%,33,1)="2",
                if(mid(%1%,34,1)="C",",",
                if(mid(%1%,34,1)="E",".","")),
            if(mid(%1%,33,1)="4",
                if(mid(%1%,34,1)="1","A",
                if(mid(%1%,34,1)="2","B",
                if(mid(%1%,34,1)="3","C",
                if(mid(%1%,34,1)="4","D",
                if(mid(%1%,34,1)="5","E",
                if(mid(%1%,34,1)="6","F",
                if(mid(%1%,34,1)="7","G",
                if(mid(%1%,34,1)="8","H",
                if(mid(%1%,34,1)="9","I",
                if(mid(%1%,34,1)="A","J",
                if(mid(%1%,34,1)="B","K",
                if(mid(%1%,34,1)="C","L",
                if(mid(%1%,34,1)="D","M",
                if(mid(%1%,34,1)="E","N",
                if(mid(%1%,34,1)="F","O",""))))))))))))))),
            if(mid(%1%,33,1)="5",
                if(mid(%1%,34,1)="0","P",
                if(mid(%1%,34,1)="1","Q",
                if(mid(%1%,34,1)="2","R",
                if(mid(%1%,34,1)="3","S",
                if(mid(%1%,34,1)="4","T",
                if(mid(%1%,34,1)="5","U",
                if(mid(%1%,34,1)="6","V",
                if(mid(%1%,34,1)="7","W",
                if(mid(%1%,34,1)="8","X",
                if(mid(%1%,34,1)="9","Y",
                if(mid(%1%,34,1)="A","Z",""))))))))))),
            if(mid(%1%,33,1)="6",
                if(mid(%1%,34,1)="1","a",
                if(mid(%1%,34,1)="2","b",
                if(mid(%1%,34,1)="3","c",
                if(mid(%1%,34,1)="4","d",
                if(mid(%1%,34,1)="5","e",
                if(mid(%1%,34,1)="6","f",
                if(mid(%1%,34,1)="7","g",
                if(mid(%1%,34,1)="8","h",
                if(mid(%1%,34,1)="9","i",
                if(mid(%1%,34,1)="A","j",
                if(mid(%1%,34,1)="B","k",
                if(mid(%1%,34,1)="C","l",
                if(mid(%1%,34,1)="D","m",
                if(mid(%1%,34,1)="E","n",
                if(mid(%1%,34,1)="F","o",""))))))))))))))),
            if(mid(%1%,33,1)="7",
                if(mid(%1%,34,1)="0","p",
                if(mid(%1%,34,1)="1","q",
                if(mid(%1%,34,1)="2","r",
                if(mid(%1%,34,1)="3","s",
                if(mid(%1%,34,1)="4","t",
                if(mid(%1%,34,1)="5","u",
                if(mid(%1%,34,1)="6","v",
                if(mid(%1%,34,1)="7","w",
                if(mid(%1%,34,1)="8","x",
                if(mid(%1%,34,1)="9","y",
                if(mid(%1%,34,1)="A","z",""))))))))))),"")))))),
        if(mid(%1%,35,1)="3",mid(%1%,36,1),
            if(mid(%1%,35,1)="2",
                if(mid(%1%,36,1)="C",",",
                if(mid(%1%,36,1)="E",".","")),
            if(mid(%1%,35,1)="4",
                if(mid(%1%,36,1)="1","A",
                if(mid(%1%,36,1)="2","B",
                if(mid(%1%,36,1)="3","C",
                if(mid(%1%,36,1)="4","D",
                if(mid(%1%,36,1)="5","E",
                if(mid(%1%,36,1)="6","F",
                if(mid(%1%,36,1)="7","G",
                if(mid(%1%,36,1)="8","H",
                if(mid(%1%,36,1)="9","I",
                if(mid(%1%,36,1)="A","J",
                if(mid(%1%,36,1)="B","K",
                if(mid(%1%,36,1)="C","L",
                if(mid(%1%,36,1)="D","M",
                if(mid(%1%,36,1)="E","N",
                if(mid(%1%,36,1)="F","O",""))))))))))))))),
            if(mid(%1%,35,1)="5",
                if(mid(%1%,36,1)="0","P",
                if(mid(%1%,36,1)="1","Q",
                if(mid(%1%,36,1)="2","R",
                if(mid(%1%,36,1)="3","S",
                if(mid(%1%,36,1)="4","T",
                if(mid(%1%,36,1)="5","U",
                if(mid(%1%,36,1)="6","V",
                if(mid(%1%,36,1)="7","W",
                if(mid(%1%,36,1)="8","X",
                if(mid(%1%,36,1)="9","Y",
                if(mid(%1%,36,1)="A","Z",""))))))))))),
            if(mid(%1%,35,1)="6",
                if(mid(%1%,36,1)="1","a",
                if(mid(%1%,36,1)="2","b",
                if(mid(%1%,36,1)="3","c",
                if(mid(%1%,36,1)="4","d",
                if(mid(%1%,36,1)="5","e",
                if(mid(%1%,36,1)="6","f",
                if(mid(%1%,36,1)="7","g",
                if(mid(%1%,36,1)="8","h",
                if(mid(%1%,36,1)="9","i",
                if(mid(%1%,36,1)="A","j",
                if(mid(%1%,36,1)="B","k",
                if(mid(%1%,36,1)="C","l",
                if(mid(%1%,36,1)="D","m",
                if(mid(%1%,36,1)="E","n",
                if(mid(%1%,36,1)="F","o",""))))))))))))))),
            if(mid(%1%,35,1)="7",
                if(mid(%1%,36,1)="0","p",
                if(mid(%1%,36,1)="1","q",
                if(mid(%1%,36,1)="2","r",
                if(mid(%1%,36,1)="3","s",
                if(mid(%1%,36,1)="4","t",
                if(mid(%1%,36,1)="5","u",
                if(mid(%1%,36,1)="6","v",
                if(mid(%1%,36,1)="7","w",
                if(mid(%1%,36,1)="8","x",
                if(mid(%1%,36,1)="9","y",
                if(mid(%1%,36,1)="A","z",""))))))))))),"")))))),
        if(mid(%1%,37,1)="3",mid(%1%,38,1),
            if(mid(%1%,37,1)="2",
                if(mid(%1%,38,1)="C",",",
                if(mid(%1%,38,1)="E",".","")),
            if(mid(%1%,37,1)="4",
                if(mid(%1%,38,1)="1","A",
                if(mid(%1%,38,1)="2","B",
                if(mid(%1%,38,1)="3","C",
                if(mid(%1%,38,1)="4","D",
                if(mid(%1%,38,1)="5","E",
                if(mid(%1%,38,1)="6","F",
                if(mid(%1%,38,1)="7","G",
                if(mid(%1%,38,1)="8","H",
                if(mid(%1%,38,1)="9","I",
                if(mid(%1%,38,1)="A","J",
                if(mid(%1%,38,1)="B","K",
                if(mid(%1%,38,1)="C","L",
                if(mid(%1%,38,1)="D","M",
                if(mid(%1%,38,1)="E","N",
                if(mid(%1%,38,1)="F","O",""))))))))))))))),
            if(mid(%1%,37,1)="5",
                if(mid(%1%,38,1)="0","P",
                if(mid(%1%,38,1)="1","Q",
                if(mid(%1%,38,1)="2","R",
                if(mid(%1%,38,1)="3","S",
                if(mid(%1%,38,1)="4","T",
                if(mid(%1%,38,1)="5","U",
                if(mid(%1%,38,1)="6","V",
                if(mid(%1%,38,1)="7","W",
                if(mid(%1%,38,1)="8","X",
                if(mid(%1%,38,1)="9","Y",
                if(mid(%1%,38,1)="A","Z",""))))))))))),
            if(mid(%1%,37,1)="6",
                if(mid(%1%,38,1)="1","a",
                if(mid(%1%,38,1)="2","b",
                if(mid(%1%,38,1)="3","c",
                if(mid(%1%,38,1)="4","d",
                if(mid(%1%,38,1)="5","e",
                if(mid(%1%,38,1)="6","f",
                if(mid(%1%,38,1)="7","g",
                if(mid(%1%,38,1)="8","h",
                if(mid(%1%,38,1)="9","i",
                if(mid(%1%,38,1)="A","j",
                if(mid(%1%,38,1)="B","k",
                if(mid(%1%,38,1)="C","l",
                if(mid(%1%,38,1)="D","m",
                if(mid(%1%,38,1)="E","n",
                if(mid(%1%,38,1)="F","o",""))))))))))))))),
            if(mid(%1%,37,1)="7",
                if(mid(%1%,38,1)="0","p",
                if(mid(%1%,38,1)="1","q",
                if(mid(%1%,38,1)="2","r",
                if(mid(%1%,38,1)="3","s",
                if(mid(%1%,38,1)="4","t",
                if(mid(%1%,38,1)="5","u",
                if(mid(%1%,38,1)="6","v",
                if(mid(%1%,38,1)="7","w",
                if(mid(%1%,38,1)="8","x",
                if(mid(%1%,38,1)="9","y",
                if(mid(%1%,38,1)="A","z",""))))))))))),""))))))
    )
)


